\relax 
\providecommand\HyperFirstAtBeginDocument{\AtBeginDocument}
\HyperFirstAtBeginDocument{\ifx\hyper@anchor\@undefined
\global\let\oldcontentsline\contentsline
\gdef\contentsline#1#2#3#4{\oldcontentsline{#1}{#2}{#3}}
\global\let\oldnewlabel\newlabel
\gdef\newlabel#1#2{\newlabelxx{#1}#2}
\gdef\newlabelxx#1#2#3#4#5#6{\oldnewlabel{#1}{{#2}{#3}}}
\AtEndDocument{\ifx\hyper@anchor\@undefined
\let\contentsline\oldcontentsline
\let\newlabel\oldnewlabel
\fi}
\fi}
\global\let\hyper@last\relax 
\gdef\HyperFirstAtBeginDocument#1{#1}
\providecommand\HyField@AuxAddToFields[1]{}
\@writefile{toc}{\contentsline {section}{\numberline {I}Introduction}{1}{section.1}}
\@writefile{toc}{\contentsline {section}{\numberline {II}Methods}{1}{section.2}}
\bibcite{Figueredo:2009dg}{Figueredo and Wolf, 2009}
\@writefile{toc}{\contentsline {section}{\numberline {III}Results}{2}{section.3}}
\@writefile{lot}{\contentsline {table}{\numberline {1}{\ignorespaces Example table\relax }}{2}{table.caption.1}}
\newlabel{eq:emc}{{1}{2}{Results\relax }{equation.3.1}{}}
\@writefile{toc}{\contentsline {section}{\numberline {IV}Discussion}{2}{section.4}}
\@writefile{toc}{\contentsline {subsection}{\numberline {I}Subsection One}{2}{subsection.4.1}}
\@writefile{toc}{\contentsline {subsection}{\numberline {II}Subsection Two}{2}{subsection.4.2}}
