\begin{thebibliography}{10}
\providecommand{\url}[1]{\texttt{#1}}
\providecommand{\urlprefix}{URL }

\bibitem{MR1621760}
Aldred, R., McKay, B.D.: Graceful and harmonious labellings of trees. Bulletin
  of the Institute of Combinatorics and its Applications  23,  69--72 (1998)

\bibitem{Sourav}
Aryabhatta, S., Roy, T.G., Uddin, M.M., Rahman, M.S.: On graceful labelings of
  trees. In: Lecture Notes in Computer Science: Proceedings of WALCOM:
  Algorithms and Computation. vol. 6552, pp. 214--220 (2011)

\bibitem{BLW}
Bahls, P., Lake, S., Wertheim, A.: Gracefulness of families of spiders. involve
  p. 241 (2010)

\bibitem{BERLOB}
Bermond, J.C.: Graceful graphs, radio antennae and french windmills, graph
  theory and combinatorics, pitman, london pp. 18--37 (1979)

\bibitem{Bermond1977113}
Bermond, J., Schonheim, J.: G-decomposition of $k_n$, where $g$ has four
  vertices or less. Discrete Mathematics  19(2),  113 -- 120 (1977)

\bibitem{USG1}
Bloom, G.S., Golomb, S.W.: Applications of numbered undirected graphs. Proc.
  IEEE  65,  562--570 (1977)

\bibitem{USG2}
Bloom, G.S., Golomb, S.W.: Numbered complete graphs , unusual rulers and
  assorted applications. Springer-Verlag  642 (1978)

\bibitem{ChenLuYehFire}
Chen, W.C., L{\"{u}}, H.I., Yeh, Y.N.: Operations of interlaced trees and
  graceful trees. Southeast Asian Bulletin Math.  21,  337--348 (1997)

\bibitem{DBLP:journals/corr/abs-1003-3045}
Fang, W.: A computational approach to the graceful tree conjecture. CoRR
  abs/1003.3045 (2010)

\bibitem{MR1668059}
Gallian, J.A.: A dynamic survey of graph labeling. Dynamic Survey  6, ~43
  (1997)

\bibitem{grace1983sequential}
Grace, T.: On sequential labelings of graphs. Journal of Graph Theory  7(2),
  195--201 (1983)

\bibitem{MR668845}
Huang, C., Kotzig, Rosa, A.: A further results on tree labellings. Utilitas
  Mathematica  21,  31--48 (1982)

\bibitem{MishPaniLob}
Mishra, D., Panigrahi, P.: Graceful lobsters obtained by component moving of
  diameter four trees. Comput. Math. Appl.  50,  367--380 (2005)

\bibitem{MishPaniLob2}
Mishra, D., Panigrahi, P.: Graceful lobsters obtained from diameter four trees
  using partitioning technique. Ars Combin.  87,  291--320 (2008)

\bibitem{MishPaniLob3}
Mishra, D., Panigrahi, P.: Some graceful lobsters with all three types of
  branches incident on the vertices of the central path. Comput. Math. Appl.
  56,  1382--1394 (2008)

\bibitem{MishPaniLob4}
Mishra, D., Panigrahi, P.: Some new classes of graceful lobsters obtained from
  diameter four trees. Math. Bohem.  135,  257--278 (2010)

\bibitem{MORLOB}
Morgan, D.: All lobsters with perfect matchings are graceful. Electronic Notes
  in Discrete Mathematics  11,  503--508 (2002)

\bibitem{Robeva11}
Robeva, E.: An extensive survey of graceful trees. Undergraduate Honours
  Thesis, Stanford University  (2011)

\bibitem{MR223271}
Rosa, A.: On certain valuations of the vertices of a graph. Theory of Graphs
  pp. 349--355 (1982)

\bibitem{Sethbanana}
Sethuraman, G., Jesintha, J.J.: All banana trees are graceful. Advances and
  Applications Disc. Math.  4,  53--64 (2009)

\bibitem{Sethbanana2}
Sethuraman, G., Jesintha, J.J.: All extended banana trees are graceful. Proc.
  Internat.Conf. Math. Comput. Sci.  1,  4--8 (2009)

\end{thebibliography}
